{
  "images" : [
    {
      "filename" : "Icono.png",
      "idiom" : "universal",
      "scale" : "1x",
      "size" : "7x7"
    },
    {
      "filename" : "Icono copia.png",
      "idiom" : "universal",
      "scale" : "2x",
      "size" : "7x7"
    },
    {
      "filename" : "Icono copia-1.png",
      "idiom" : "universal",
      "scale" : "3x",
      "size" : "7x7"
    },
    {
      "filename" : "Icono copia-2.png",
      "idiom" : "universal",
      "scale" : "1x",
      "size" : "11x11"
    },
    {
      "filename" : "Icono copia-3.png",
      "idiom" : "universal",
      "scale" : "2x",
      "size" : "11x11"
    },
    {
      "filename" : "Icono copia-4.png",
      "idiom" : "universal",
      "scale" : "3x",
      "size" : "11x11"
    },
    {
      "filename" : "Icono copia-5.png",
      "idiom" : "universal",
      "scale" : "1x",
      "size" : "24x24"
    },
    {
      "filename" : "48.png",
      "idiom" : "universal",
      "scale" : "2x",
      "size" : "24x24"
    },
    {
      "filename" : "72.png",
      "idiom" : "universal",
      "scale" : "3x",
      "size" : "24x24"
    },
    {
      "filename" : "50.png",
      "idiom" : "universal",
      "scale" : "1x",
      "size" : "50x50"
    },
    {
      "filename" : "100.png",
      "idiom" : "universal",
      "scale" : "2x",
      "size" : "50x50"
    },
    {
      "filename" : "Icono copia-6.png",
      "idiom" : "universal",
      "scale" : "3x",
      "size" : "50x50"
    },
    {
      "filename" : "100-1.png",
      "idiom" : "universal",
      "scale" : "1x",
      "size" : "100x100"
    },
    {
      "filename" : "Icono copia-7.png",
      "idiom" : "universal",
      "scale" : "2x",
      "size" : "100x100"
    },
    {
      "filename" : "Icono copia-8.png",
      "idiom" : "universal",
      "scale" : "3x",
      "size" : "100x100"
    }
  ],
  "info" : {
    "author" : "xcode",
    "version" : 1
  }
}
